<?xml version="1.0" encoding="UTF-8" standalone="no"?>
<svg
   xmlns:serif="http://www.serif.com/"
   xmlns:dc="http://purl.org/dc/elements/1.1/"
   xmlns:cc="http://creativecommons.org/ns#"
   xmlns:rdf="http://www.w3.org/1999/02/22-rdf-syntax-ns#"
   xmlns:svg="http://www.w3.org/2000/svg"
   xmlns="http://www.w3.org/2000/svg"
   xmlns:sodipodi="http://sodipodi.sourceforge.net/DTD/sodipodi-0.dtd"
   xmlns:inkscape="http://www.inkscape.org/namespaces/inkscape"
   width="100%"
   height="100%"
   viewBox="0 0 50 50"
   version="1.1"
   xml:space="preserve"
   style="fill-rule:evenodd;clip-rule:evenodd;stroke-linecap:round;stroke-linejoin:round;stroke-miterlimit:1.5;"
   id="svg636"
   sodipodi:docname="icons-artur-load-online-201024-v04.svg"
   inkscape:version="1.0.1 (3bc2e813f5, 2020-09-07)"><metadata
   id="metadata642"><rdf:RDF><cc:Work
       rdf:about=""><dc:format>image/svg+xml</dc:format><dc:type
         rdf:resource="http://purl.org/dc/dcmitype/StillImage" /><dc:title></dc:title></cc:Work></rdf:RDF></metadata><defs
   id="defs640" /><sodipodi:namedview
   pagecolor="#ff84ff"
   bordercolor="#666666"
   borderopacity="1"
   objecttolerance="10"
   gridtolerance="10"
   guidetolerance="10"
   inkscape:pageopacity="0"
   inkscape:pageshadow="2"
   inkscape:window-width="2560"
   inkscape:window-height="1371"
   id="namedview638"
   showgrid="false"
   inkscape:zoom="20.16"
   inkscape:cx="25"
   inkscape:cy="25"
   inkscape:window-x="1920"
   inkscape:window-y="32"
   inkscape:window-maximized="1"
   inkscape:current-layer="g625" />
    <g
   transform="matrix(1,0,0,1,-352.666,-236.67)"
   id="g634">
        <g
   id="load-online-white-final"
   serif:id="load online white final"
   transform="matrix(1,0,0,1,352.666,236.67)">
            <rect
   x="0"
   y="0"
   width="50"
   height="50"
   style="fill:none;"
   id="rect617" />
            <g
   transform="matrix(0.96,0,0,0.96,-228.903,-76.76)"
   id="g621">
                <path
   d="M256.048,110L246.982,110C242.842,110 239.482,106.639 239.482,102.5C239.482,99.185 241.637,96.369 244.622,95.379C244.53,94.767 244.482,94.139 244.482,93.5C244.482,86.601 250.083,81 256.982,81C261.495,81 265.453,83.397 267.65,86.986C268.961,86.354 270.43,86 271.982,86C277.164,86 281.43,89.95 281.932,95L281.982,95C286.121,95 289.482,98.361 289.482,102.5C289.482,106.639 286.121,110 281.982,110C281.982,110 272.877,110 272.877,110"
   style="fill:none;stroke:white;stroke-width:2.08px;"
   id="path619" />
            </g>
            <g
   transform="matrix(-1,-1.2078e-16,1.2078e-16,-1,49.8875,61.9932)"
   id="g631">
                <g
   transform="matrix(0.802167,0.000683221,-0.000504243,0.59203,-45.0074,4.01115)"
   id="g625">
                    <path
   d="m 77.28114,62.411547 9.994221,16.867957 9.95175,-16.913994"
   style="fill:none;stroke:#ffffff;stroke-width:2.84px"
   id="path623" />
                </g>
                <g
   transform="matrix(-0.000425083,0.717181,-0.0844509,-5.00552e-05,33.3914,-114.575)"
   id="g629">
                    <path
   d="M229.482,98.304C229.482,95.208 229.337,92.238 229.079,90.048C228.821,87.859 228.472,86.628 228.107,86.629C220.95,86.629 188.013,86.629 180.857,86.629C180.492,86.628 180.142,87.859 179.885,90.048C179.627,92.238 179.482,95.208 179.482,98.304C179.482,98.311 179.482,98.318 179.482,98.324C179.482,101.421 179.627,104.391 179.885,106.58C180.142,108.77 180.492,110 180.857,110C188.013,110 220.95,110 228.107,110C228.472,110 228.821,108.77 229.079,106.58C229.337,104.391 229.482,101.421 229.482,98.324C229.482,98.318 229.482,98.311 229.482,98.304Z"
   style="fill:white;"
   id="path627" />
                </g>
            </g>
        </g>
    </g>
</svg>
